"C:\Program Files\Java\jdk-9.0.4\bin\java" "-javaagent:C:\Program Files\JetBrains\IntelliJ IDEA Community Edition 2017.3.4\lib\idea_rt.jar=50417:C:\Program Files\JetBrains\IntelliJ IDEA Community Edition 2017.3.4\bin" -Dfile.encoding=UTF-8 -classpath C:\Temp\Java\LadWorks\my-labs\out\production\my-labs com.mainacad.module1.labs.lab1_6.Lab1
  2  4  6  8 10 12 14 16 18 20 22 24 26 28 30
[2, 4, 6, 8, 10, 12, 14, 16, 18, 20, 22, 24, 26, 28, 30]

Process finished with exit code 0
