"C:\Program Files\Java\jdk-9.0.4\bin\java" "-javaagent:C:\Program Files\JetBrains\IntelliJ IDEA Community Edition 2017.3.4\lib\idea_rt.jar=50494:C:\Program Files\JetBrains\IntelliJ IDEA Community Edition 2017.3.4\bin" -Dfile.encoding=UTF-8 -classpath C:\Temp\Java\LadWorks\my-labs\out\production\my-labs com.mainacad.module1.labs.lab1_6.Lab5
Исходная матрица
  1  2  3  4
  5  6  7  8
  9 10 11 12
 13 14 15 16

Транспонированная матрица
  1  5  9 13
  2  6 10 14
  3  7 11 15
  4  8 12 16

Process finished with exit code 0